{
    "name": "InputActions_Player",
    "maps": [
        {
            "name": "Player Controls",
            "id": "b0548edb-2f48-4e32-bd0a-8049c4b6bf1b",
            "actions": [
                {
                    "name": "Movement_Left",
                    "type": "Value",
                    "id": "9a322b68-5201-4321-8e7d-0854a14a3a01",
                    "expectedControlType": "Vector2",
                    "processors": "",
                    "interactions": "",
                    "initialStateCheck": true
                },
                {
                    "name": "Movement_Right",
                    "type": "Value",
                    "id": "f93ea8e2-d9eb-4d22-b47a-b8e0688c94b2",
                    "expectedControlType": "Vector2",
                    "processors": "",
                    "interactions": "",
                    "initialStateCheck": true
                },
                {
                    "name": "Grab_Right",
                    "type": "Button",
                    "id": "384ffe52-0bcb-436c-ad48-fb62cbf138f0",
                    "expectedControlType": "Button",
                    "processors": "",
                    "interactions": "",
                    "initialStateCheck": false
                },
                {
                    "name": "Exit",
                    "type": "Button",
                    "id": "e3714a64-9d1c-4e9c-b63f-6eba19e0a314",
                    "expectedControlType": "Button",
                    "processors": "",
                    "interactions": "Hold(duration=3)",
                    "initialStateCheck": false
                },
                {
                    "name": "Grab_Left",
                    "type": "Button",
                    "id": "f57e8035-8511-4a1e-9b2c-344188af115e",
                    "expectedControlType": "Button",
                    "processors": "",
                    "interactions": "",
                    "initialStateCheck": false
                },
                {
                    "name": "Navigate",
                    "type": "Value",
                    "id": "1f43d057-1071-41ed-902f-c60173b445cf",
                    "expectedControlType": "Vector2",
                    "processors": "",
                    "interactions": "",
                    "initialStateCheck": true
                },
                {
                    "name": "Submit",
                    "type": "Button",
                    "id": "d84d192b-0f84-40b8-9965-a6cc8f24b914",
                    "expectedControlType": "Button",
                    "processors": "",
                    "interactions": "",
                    "initialStateCheck": false
                },
                {
                    "name": "Join_Left",
                    "type": "Button",
                    "id": "0fbe5601-5462-4744-9390-3146dd1376ba",
                    "expectedControlType": "Button",
                    "processors": "",
                    "interactions": "",
                    "initialStateCheck": false
                },
                {
                    "name": "Join_Right",
                    "type": "Button",
                    "id": "7978007a-c5d4-425f-9bdf-4fd44181fd1f",
                    "expectedControlType": "Button",
                    "processors": "",
                    "interactions": "",
                    "initialStateCheck": false
                },
                {
                    "name": "NextTrack",
                    "type": "Button",
                    "id": "41dda804-75b1-4df4-9986-ff6660271f38",
                    "expectedControlType": "Button",
                    "processors": "",
                    "interactions": "",
                    "initialStateCheck": false
                },
                {
                    "name": "PreviousTrack",
                    "type": "Button",
                    "id": "606a94ba-3435-4290-a589-d4f5c2ca1855",
                    "expectedControlType": "Button",
                    "processors": "",
                    "interactions": "",
                    "initialStateCheck": false
                }
            ],
            "bindings": [
                {
                    "name": "",
                    "id": "b25f9815-1d82-4842-97c2-c01603c16f0d",
                    "path": "<Gamepad>/leftStick",
                    "interactions": "",
                    "processors": "StickDeadzone",
                    "groups": "Gamepad",
                    "action": "Movement_Left",
                    "isComposite": false,
                    "isPartOfComposite": false
                },
                {
                    "name": "",
                    "id": "06f590df-5ee7-428c-bade-f510ac683632",
                    "path": "<Gamepad>/rightStick",
                    "interactions": "",
                    "processors": "StickDeadzone",
                    "groups": "Gamepad",
                    "action": "Movement_Right",
                    "isComposite": false,
                    "isPartOfComposite": false
                },
                {
                    "name": "",
                    "id": "709919ad-3a7d-4845-be12-b893bd35a62e",
                    "path": "<Gamepad>/rightTrigger",
                    "interactions": "",
                    "processors": "",
                    "groups": "Gamepad",
                    "action": "Grab_Right",
                    "isComposite": false,
                    "isPartOfComposite": false
                },
                {
                    "name": "",
                    "id": "9585f809-87a7-45f4-9004-cf34d0f34b63",
                    "path": "<Gamepad>/rightShoulder",
                    "interactions": "",
                    "processors": "",
                    "groups": "Gamepad",
                    "action": "Grab_Right",
                    "isComposite": false,
                    "isPartOfComposite": false
                },
                {
                    "name": "",
                    "id": "ca4732c6-0614-4a80-ac9a-2bb836ef2026",
                    "path": "<Gamepad>/start",
                    "interactions": "Hold(duration=3)",
                    "processors": "",
                    "groups": "Gamepad",
                    "action": "Exit",
                    "isComposite": false,
                    "isPartOfComposite": false
                },
                {
                    "name": "",
                    "id": "fa7b6af4-65bd-4ede-8f4b-963e6f76d116",
                    "path": "<Gamepad>/select",
                    "interactions": "Hold(duration=3)",
                    "processors": "",
                    "groups": "Gamepad",
                    "action": "Exit",
                    "isComposite": false,
                    "isPartOfComposite": false
                },
                {
                    "name": "",
                    "id": "8d071b7a-ed75-451c-9b96-3a30f2ff2e27",
                    "path": "<Gamepad>/leftTrigger",
                    "interactions": "",
                    "processors": "",
                    "groups": "Gamepad",
                    "action": "Grab_Left",
                    "isComposite": false,
                    "isPartOfComposite": false
                },
                {
                    "name": "",
                    "id": "9fedc34e-2c79-412e-ae94-6ec9a1013221",
                    "path": "<Gamepad>/leftShoulder",
                    "interactions": "",
                    "processors": "",
                    "groups": "",
                    "action": "Grab_Left",
                    "isComposite": false,
                    "isPartOfComposite": false
                },
                {
                    "name": "",
                    "id": "7045e9d8-5c1a-4fa6-9c69-81424f2b1d16",
                    "path": "<Gamepad>/dpad",
                    "interactions": "",
                    "processors": "",
                    "groups": "Gamepad",
                    "action": "Navigate",
                    "isComposite": false,
                    "isPartOfComposite": false
                },
                {
                    "name": "",
                    "id": "a5b02d12-1a2b-4d09-9c9c-84ff9558c5bc",
                    "path": "<Gamepad>/buttonSouth",
                    "interactions": "",
                    "processors": "",
                    "groups": "Gamepad",
                    "action": "Submit",
                    "isComposite": false,
                    "isPartOfComposite": false
                },
                {
                    "name": "",
                    "id": "9ea1c568-147b-4119-9f0c-a8e490bf26c6",
                    "path": "<Gamepad>/leftStickPress",
                    "interactions": "",
                    "processors": "",
                    "groups": "",
                    "action": "Join_Left",
                    "isComposite": false,
                    "isPartOfComposite": false
                },
                {
                    "name": "",
                    "id": "a0ca271b-dbfb-4a64-93a8-e46bf6e269f3",
                    "path": "<Gamepad>/rightStickPress",
                    "interactions": "",
                    "processors": "",
                    "groups": "Gamepad",
                    "action": "Join_Right",
                    "isComposite": false,
                    "isPartOfComposite": false
                },
                {
                    "name": "",
                    "id": "cc3a5eb5-7f90-462e-9571-a4a1b0f65bb1",
                    "path": "<Keyboard>/rightArrow",
                    "interactions": "",
                    "processors": "",
                    "groups": "",
                    "action": "NextTrack",
                    "isComposite": false,
                    "isPartOfComposite": false
                },
                {
                    "name": "",
                    "id": "5f40ac0a-3eb1-43b2-bc25-cb6b54b23d05",
                    "path": "<Gamepad>/dpad/right",
                    "interactions": "",
                    "processors": "",
                    "groups": "",
                    "action": "NextTrack",
                    "isComposite": false,
                    "isPartOfComposite": false
                },
                {
                    "name": "",
                    "id": "929b9519-0ea1-452b-b5d2-84a728da449b",
                    "path": "<Keyboard>/leftArrow",
                    "interactions": "",
                    "processors": "",
                    "groups": "",
                    "action": "PreviousTrack",
                    "isComposite": false,
                    "isPartOfComposite": false
                },
                {
                    "name": "",
                    "id": "668595c4-229f-444e-9ace-bccd85afdf11",
                    "path": "<Gamepad>/dpad/left",
                    "interactions": "",
                    "processors": "",
                    "groups": "",
                    "action": "PreviousTrack",
                    "isComposite": false,
                    "isPartOfComposite": false
                }
            ]
        }
    ],
    "controlSchemes": [
        {
            "name": "Gamepad",
            "bindingGroup": "Gamepad",
            "devices": [
                {
                    "devicePath": "<Gamepad>",
                    "isOptional": false,
                    "isOR": false
                }
            ]
        }
    ]
}