0.027000	0.027000	B
0.527000	0.527000	B
1.027000	1.027000	B
1.527000	1.527000	B
2.027000	2.027000	B
2.527000	2.527000	B
3.027000	3.027000	B
3.527000	3.527000	B
4.027000	4.027000	B
4.527000	4.527000	B
5.027000	5.027000	B
5.527000	5.527000	B
6.027000	6.027000	B
6.527000	6.527000	B
7.027000	7.027000	B
7.527000	7.527000	B
8.027000	8.027000	B
8.527000	8.527000	B
9.027000	9.027000	B
9.527000	9.527000	B
10.027000	10.027000	B
10.527000	10.527000	B
11.027000	11.027000	B
11.527000	11.527000	B
12.027000	12.027000	B
12.527000	12.527000	B
13.027000	13.027000	B
13.527000	13.527000	B
14.027000	14.027000	B
14.527000	14.527000	B
15.027000	15.027000	B
15.527000	15.527000	B
16.027000	16.027000	B
16.527000	16.527000	B
17.027000	17.027000	B
17.527000	17.527000	B
18.027000	18.027000	B
18.527000	18.527000	B
19.027000	19.027000	B
19.527000	19.527000	B
20.027000	20.027000	B
20.527000	20.527000	B
21.027000	21.027000	B
21.527000	21.527000	B
22.027000	22.027000	B
22.527000	22.527000	B
23.027000	23.027000	B
23.527000	23.527000	B
24.027000	24.027000	B
24.527000	24.527000	B
25.027000	25.027000	B
25.527000	25.527000	B
26.027000	26.027000	B
26.527000	26.527000	B
27.027000	27.027000	B
27.527000	27.527000	B
28.027000	28.027000	B
28.527000	28.527000	B
29.027000	29.027000	B
29.527000	29.527000	B
30.027000	30.027000	B
30.527000	30.527000	B
31.027000	31.027000	B
31.527000	31.527000	B
32.027000	32.027000	B
32.527000	32.527000	B
33.027000	33.027000	B
33.527000	33.527000	B
34.027000	34.027000	B
34.527000	34.527000	B
35.027000	35.027000	B
35.527000	35.527000	B
36.027000	36.027000	B
36.527000	36.527000	B
37.027000	37.027000	B
37.527000	37.527000	B
38.027000	38.027000	B
38.527000	38.527000	B
39.027000	39.027000	B
39.527000	39.527000	B
40.027000	40.027000	B
40.527000	40.527000	B
41.027000	41.027000	B
41.527000	41.527000	B
42.027000	42.027000	B
42.527000	42.527000	B
43.027000	43.027000	B
43.527000	43.527000	B
44.027000	44.027000	B
44.527000	44.527000	B
45.027000	45.027000	B
45.527000	45.527000	B
46.027000	46.027000	B
46.527000	46.527000	B
47.027000	47.027000	B
47.527000	47.527000	B
48.027000	48.027000	B
48.527000	48.527000	B
49.027000	49.027000	B
49.527000	49.527000	B
50.027000	50.027000	B
50.527000	50.527000	B
51.027000	51.027000	B
51.527000	51.527000	B
52.027000	52.027000	B
52.527000	52.527000	B
53.027000	53.027000	B
53.527000	53.527000	B
54.027000	54.027000	B
54.527000	54.527000	B
55.027000	55.027000	B
55.527000	55.527000	B
56.027000	56.027000	B
56.527000	56.527000	B
57.027000	57.027000	B
57.527000	57.527000	B
58.027000	58.027000	B
58.527000	58.527000	B
59.027000	59.027000	B
59.527000	59.527000	B
60.027000	60.027000	B
60.527000	60.527000	B
61.027000	61.027000	B
61.527000	61.527000	B
62.027000	62.027000	B
62.527000	62.527000	B
63.027000	63.027000	B
63.527000	63.527000	B
64.027000	64.027000	B
64.527000	64.527000	B
65.027000	65.027000	B
65.527000	65.527000	B
66.027000	66.027000	B
66.527000	66.527000	B
67.027000	67.027000	B
67.527000	67.527000	B
68.027000	68.027000	B
68.527000	68.527000	B
69.027000	69.027000	B
69.527000	69.527000	B
70.027000	70.027000	B
70.527000	70.527000	B
71.027000	71.027000	B
71.527000	71.527000	B
72.027000	72.027000	B
72.527000	72.527000	B
73.027000	73.027000	B
73.527000	73.527000	B
74.027000	74.027000	B
74.527000	74.527000	B
75.027000	75.027000	B
75.527000	75.527000	B
76.027000	76.027000	B
76.527000	76.527000	B
77.027000	77.027000	B
77.527000	77.527000	B
78.027000	78.027000	B
78.527000	78.527000	B
79.027000	79.027000	B
79.527000	79.527000	B
80.027000	80.027000	B
80.527000	80.527000	B
81.027000	81.027000	B
81.527000	81.527000	B
82.027000	82.027000	B
82.527000	82.527000	B
83.027000	83.027000	B
83.527000	83.527000	B
84.027000	84.027000	B
84.527000	84.527000	B
85.027000	85.027000	B
85.527000	85.527000	B
86.027000	86.027000	B
86.527000	86.527000	B
87.027000	87.027000	B
87.527000	87.527000	B
88.027000	88.027000	B
88.527000	88.527000	B
89.027000	89.027000	B
89.527000	89.527000	B
90.027000	90.027000	B
90.527000	90.527000	B
91.027000	91.027000	B
91.527000	91.527000	B
92.027000	92.027000	B
92.527000	92.527000	B
93.027000	93.027000	B
93.527000	93.527000	B
94.027000	94.027000	B
94.527000	94.527000	B
95.027000	95.027000	B
95.527000	95.527000	B
96.027000	96.027000	B
96.527000	96.527000	B
97.027000	97.027000	B
97.527000	97.527000	B
98.027000	98.027000	B
98.527000	98.527000	B
99.027000	99.027000	B
99.527000	99.527000	B
100.027000	100.027000	B
100.527000	100.527000	B
101.027000	101.027000	B
101.527000	101.527000	B
102.027000	102.027000	B
102.527000	102.527000	B
103.027000	103.027000	B
103.527000	103.527000	B
104.027000	104.027000	B
104.527000	104.527000	B
105.027000	105.027000	B
105.527000	105.527000	B
106.027000	106.027000	B
106.527000	106.527000	B
107.027000	107.027000	B
107.527000	107.527000	B
108.027000	108.027000	B
108.527000	108.527000	B
109.027000	109.027000	B
109.527000	109.527000	B
110.027000	110.027000	B
110.527000	110.527000	B
111.027000	111.027000	B
111.527000	111.527000	B
112.027000	112.027000	B
112.527000	112.527000	B
113.027000	113.027000	B
113.527000	113.527000	B
114.027000	114.027000	B
114.527000	114.527000	B
115.027000	115.027000	B
115.527000	115.527000	B
116.027000	116.027000	B
116.527000	116.527000	B
117.027000	117.027000	B
117.527000	117.527000	B
118.027000	118.027000	B
118.527000	118.527000	B
119.027000	119.027000	B
119.527000	119.527000	B
120.027000	120.027000	B
120.527000	120.527000	B
121.027000	121.027000	B
121.527000	121.527000	B
122.027000	122.027000	B
122.527000	122.527000	B
123.027000	123.027000	B
123.527000	123.527000	B
124.027000	124.027000	B
124.527000	124.527000	B
125.027000	125.027000	B
125.527000	125.527000	B
126.027000	126.027000	B
126.527000	126.527000	B
127.027000	127.027000	B
127.527000	127.527000	B
128.027000	128.027000	B
128.527000	128.527000	B
129.027000	129.027000	B
129.527000	129.527000	B
130.027000	130.027000	B
130.527000	130.527000	B
131.027000	131.027000	B
131.527000	131.527000	B
132.027000	132.027000	B
132.527000	132.527000	B
133.027000	133.027000	B
133.527000	133.527000	B
134.027000	134.027000	B
134.527000	134.527000	B
135.027000	135.027000	B
135.527000	135.527000	B
136.027000	136.027000	B
136.527000	136.527000	B
137.027000	137.027000	B
137.527000	137.527000	B
138.027000	138.027000	B
138.527000	138.527000	B
139.027000	139.027000	B
139.527000	139.527000	B
140.027000	140.027000	B
140.527000	140.527000	B
141.027000	141.027000	B
141.527000	141.527000	B
142.027000	142.027000	B
142.527000	142.527000	B
143.027000	143.027000	B
143.527000	143.527000	B
144.027000	144.027000	B
144.527000	144.527000	B
145.027000	145.027000	B
145.527000	145.527000	B
146.027000	146.027000	B
146.527000	146.527000	B
147.027000	147.027000	B
147.527000	147.527000	B
148.027000	148.027000	B
148.527000	148.527000	B
149.027000	149.027000	B
149.527000	149.527000	B
