%YAML 1.1
%TAG !u! tag:unity3d.com,2011:
--- !u!1001 &4654517358787879115
PrefabInstance:
  m_ObjectHideFlags: 0
  serializedVersion: 2
  m_Modification:
    m_TransformParent: {fileID: 5802244238206466671}
    m_Modifications:
    - target: {fileID: -8653719598885068355, guid: 2ee906502b507cf4cb1c077934906360, type: 3}
      propertyPath: m_Name
      value: cyclops_neutral
      objectReference: {fileID: 0}
    - target: {fileID: -8064800503979349229, guid: 2ee906502b507cf4cb1c077934906360, type: 3}
      propertyPath: m_SortingLayer
      value: 2
      objectReference: {fileID: 0}
    - target: {fileID: -8064800503979349229, guid: 2ee906502b507cf4cb1c077934906360, type: 3}
      propertyPath: m_SortingLayerID
      value: -1829531043
      objectReference: {fileID: 0}
    - target: {fileID: -7552582706839291426, guid: 2ee906502b507cf4cb1c077934906360, type: 3}
      propertyPath: m_RootOrder
      value: 6
      objectReference: {fileID: 0}
    - target: {fileID: -7552582706839291426, guid: 2ee906502b507cf4cb1c077934906360, type: 3}
      propertyPath: m_LocalScale.x
      value: 1.5
      objectReference: {fileID: 0}
    - target: {fileID: -7552582706839291426, guid: 2ee906502b507cf4cb1c077934906360, type: 3}
      propertyPath: m_LocalScale.y
      value: 1.5
      objectReference: {fileID: 0}
    - target: {fileID: -7552582706839291426, guid: 2ee906502b507cf4cb1c077934906360, type: 3}
      propertyPath: m_LocalPosition.x
      value: 0.6
      objectReference: {fileID: 0}
    - target: {fileID: -7552582706839291426, guid: 2ee906502b507cf4cb1c077934906360, type: 3}
      propertyPath: m_LocalPosition.y
      value: -1
      objectReference: {fileID: 0}
    - target: {fileID: -7552582706839291426, guid: 2ee906502b507cf4cb1c077934906360, type: 3}
      propertyPath: m_LocalPosition.z
      value: 0
      objectReference: {fileID: 0}
    - target: {fileID: -7552582706839291426, guid: 2ee906502b507cf4cb1c077934906360, type: 3}
      propertyPath: m_LocalRotation.w
      value: 1
      objectReference: {fileID: 0}
    - target: {fileID: -7552582706839291426, guid: 2ee906502b507cf4cb1c077934906360, type: 3}
      propertyPath: m_LocalRotation.x
      value: 0
      objectReference: {fileID: 0}
    - target: {fileID: -7552582706839291426, guid: 2ee906502b507cf4cb1c077934906360, type: 3}
      propertyPath: m_LocalRotation.y
      value: 0
      objectReference: {fileID: 0}
    - target: {fileID: -7552582706839291426, guid: 2ee906502b507cf4cb1c077934906360, type: 3}
      propertyPath: m_LocalRotation.z
      value: 0
      objectReference: {fileID: 0}
    - target: {fileID: -7552582706839291426, guid: 2ee906502b507cf4cb1c077934906360, type: 3}
      propertyPath: m_LocalEulerAnglesHint.x
      value: 0
      objectReference: {fileID: 0}
    - target: {fileID: -7552582706839291426, guid: 2ee906502b507cf4cb1c077934906360, type: 3}
      propertyPath: m_LocalEulerAnglesHint.y
      value: 0
      objectReference: {fileID: 0}
    - target: {fileID: -7552582706839291426, guid: 2ee906502b507cf4cb1c077934906360, type: 3}
      propertyPath: m_LocalEulerAnglesHint.z
      value: 0
      objectReference: {fileID: 0}
    - target: {fileID: -7039272200639077762, guid: 2ee906502b507cf4cb1c077934906360, type: 3}
      propertyPath: m_SortingLayer
      value: 2
      objectReference: {fileID: 0}
    - target: {fileID: -7039272200639077762, guid: 2ee906502b507cf4cb1c077934906360, type: 3}
      propertyPath: m_SortingLayerID
      value: -1829531043
      objectReference: {fileID: 0}
    - target: {fileID: 1693637594012428299, guid: 2ee906502b507cf4cb1c077934906360, type: 3}
      propertyPath: m_SortingLayer
      value: 2
      objectReference: {fileID: 0}
    - target: {fileID: 1693637594012428299, guid: 2ee906502b507cf4cb1c077934906360, type: 3}
      propertyPath: m_SortingLayerID
      value: -1829531043
      objectReference: {fileID: 0}
    - target: {fileID: 5251891141940544215, guid: 2ee906502b507cf4cb1c077934906360, type: 3}
      propertyPath: m_SortingLayer
      value: 2
      objectReference: {fileID: 0}
    - target: {fileID: 5251891141940544215, guid: 2ee906502b507cf4cb1c077934906360, type: 3}
      propertyPath: m_SortingLayerID
      value: -1829531043
      objectReference: {fileID: 0}
    - target: {fileID: 5454718984575351817, guid: 2ee906502b507cf4cb1c077934906360, type: 3}
      propertyPath: m_SortingLayer
      value: 2
      objectReference: {fileID: 0}
    - target: {fileID: 5454718984575351817, guid: 2ee906502b507cf4cb1c077934906360, type: 3}
      propertyPath: m_SortingLayerID
      value: -1829531043
      objectReference: {fileID: 0}
    - target: {fileID: 8871100586519784757, guid: 2ee906502b507cf4cb1c077934906360, type: 3}
      propertyPath: m_SortingLayer
      value: 2
      objectReference: {fileID: 0}
    - target: {fileID: 8871100586519784757, guid: 2ee906502b507cf4cb1c077934906360, type: 3}
      propertyPath: m_SortingLayerID
      value: -1829531043
      objectReference: {fileID: 0}
    m_RemovedComponents: []
  m_SourcePrefab: {fileID: 4843985084834002234, guid: 2ee906502b507cf4cb1c077934906360, type: 3}
--- !u!1 &5152088558586970486 stripped
GameObject:
  m_CorrespondingSourceObject: {fileID: -8653719598885068355, guid: 2ee906502b507cf4cb1c077934906360, type: 3}
  m_PrefabInstance: {fileID: 4654517358787879115}
  m_PrefabAsset: {fileID: 0}
--- !u!95 &85971369132497569
Animator:
  serializedVersion: 4
  m_ObjectHideFlags: 0
  m_CorrespondingSourceObject: {fileID: 0}
  m_PrefabInstance: {fileID: 0}
  m_PrefabAsset: {fileID: 0}
  m_GameObject: {fileID: 5152088558586970486}
  m_Enabled: 1
  m_Avatar: {fileID: 0}
  m_Controller: {fileID: 22100000, guid: fde9f4ea13fffb32780a0364e04434d9, type: 2}
  m_CullingMode: 2
  m_UpdateMode: 0
  m_ApplyRootMotion: 0
  m_LinearVelocityBlending: 0
  m_StabilizeFeet: 0
  m_WarningMessage: 
  m_HasTransformHierarchy: 1
  m_AllowConstantClipSamplingOptimization: 1
  m_KeepAnimatorControllerStateOnDisable: 0
--- !u!1001 &8252936727277742096
PrefabInstance:
  m_ObjectHideFlags: 0
  serializedVersion: 2
  m_Modification:
    m_TransformParent: {fileID: 0}
    m_Modifications:
    - target: {fileID: 2453868467073340030, guid: 3abf19c8007f30c4f9ac92f3a3c575d3, type: 3}
      propertyPath: m_Name
      value: dead_cyclops
      objectReference: {fileID: 0}
    - target: {fileID: 2453868467073340031, guid: 3abf19c8007f30c4f9ac92f3a3c575d3, type: 3}
      propertyPath: m_RootOrder
      value: 0
      objectReference: {fileID: 0}
    - target: {fileID: 2453868467073340031, guid: 3abf19c8007f30c4f9ac92f3a3c575d3, type: 3}
      propertyPath: m_LocalPosition.x
      value: 0
      objectReference: {fileID: 0}
    - target: {fileID: 2453868467073340031, guid: 3abf19c8007f30c4f9ac92f3a3c575d3, type: 3}
      propertyPath: m_LocalPosition.y
      value: 0
      objectReference: {fileID: 0}
    - target: {fileID: 2453868467073340031, guid: 3abf19c8007f30c4f9ac92f3a3c575d3, type: 3}
      propertyPath: m_LocalPosition.z
      value: 0
      objectReference: {fileID: 0}
    - target: {fileID: 2453868467073340031, guid: 3abf19c8007f30c4f9ac92f3a3c575d3, type: 3}
      propertyPath: m_LocalRotation.w
      value: 1
      objectReference: {fileID: 0}
    - target: {fileID: 2453868467073340031, guid: 3abf19c8007f30c4f9ac92f3a3c575d3, type: 3}
      propertyPath: m_LocalRotation.x
      value: 0
      objectReference: {fileID: 0}
    - target: {fileID: 2453868467073340031, guid: 3abf19c8007f30c4f9ac92f3a3c575d3, type: 3}
      propertyPath: m_LocalRotation.y
      value: 0
      objectReference: {fileID: 0}
    - target: {fileID: 2453868467073340031, guid: 3abf19c8007f30c4f9ac92f3a3c575d3, type: 3}
      propertyPath: m_LocalRotation.z
      value: 0
      objectReference: {fileID: 0}
    - target: {fileID: 2453868467073340031, guid: 3abf19c8007f30c4f9ac92f3a3c575d3, type: 3}
      propertyPath: m_LocalEulerAnglesHint.x
      value: 0
      objectReference: {fileID: 0}
    - target: {fileID: 2453868467073340031, guid: 3abf19c8007f30c4f9ac92f3a3c575d3, type: 3}
      propertyPath: m_LocalEulerAnglesHint.y
      value: 0
      objectReference: {fileID: 0}
    - target: {fileID: 2453868467073340031, guid: 3abf19c8007f30c4f9ac92f3a3c575d3, type: 3}
      propertyPath: m_LocalEulerAnglesHint.z
      value: 0
      objectReference: {fileID: 0}
    - target: {fileID: 2525434067054087962, guid: 3abf19c8007f30c4f9ac92f3a3c575d3, type: 3}
      propertyPath: sprites.Array.size
      value: 6
      objectReference: {fileID: 0}
    - target: {fileID: 2525434067054087962, guid: 3abf19c8007f30c4f9ac92f3a3c575d3, type: 3}
      propertyPath: sprites.Array.data[0].red
      value: 
      objectReference: {fileID: 473772315441884384, guid: 4285cd8d773a6604897ddbac8a3614ff, type: 3}
    - target: {fileID: 2525434067054087962, guid: 3abf19c8007f30c4f9ac92f3a3c575d3, type: 3}
      propertyPath: sprites.Array.data[1].red
      value: 
      objectReference: {fileID: -5036549306041059825, guid: 4285cd8d773a6604897ddbac8a3614ff, type: 3}
    - target: {fileID: 2525434067054087962, guid: 3abf19c8007f30c4f9ac92f3a3c575d3, type: 3}
      propertyPath: sprites.Array.data[2].red
      value: 
      objectReference: {fileID: -768671700401450216, guid: 4285cd8d773a6604897ddbac8a3614ff, type: 3}
    - target: {fileID: 2525434067054087962, guid: 3abf19c8007f30c4f9ac92f3a3c575d3, type: 3}
      propertyPath: sprites.Array.data[3].red
      value: 
      objectReference: {fileID: 7242715584210399882, guid: 4285cd8d773a6604897ddbac8a3614ff, type: 3}
    - target: {fileID: 2525434067054087962, guid: 3abf19c8007f30c4f9ac92f3a3c575d3, type: 3}
      propertyPath: sprites.Array.data[4].red
      value: 
      objectReference: {fileID: -4988355311547959254, guid: 4285cd8d773a6604897ddbac8a3614ff, type: 3}
    - target: {fileID: 2525434067054087962, guid: 3abf19c8007f30c4f9ac92f3a3c575d3, type: 3}
      propertyPath: sprites.Array.data[5].red
      value: 
      objectReference: {fileID: -3231291032323414773, guid: 4285cd8d773a6604897ddbac8a3614ff, type: 3}
    - target: {fileID: 2525434067054087962, guid: 3abf19c8007f30c4f9ac92f3a3c575d3, type: 3}
      propertyPath: sprites.Array.data[0].blue
      value: 
      objectReference: {fileID: 2326475726048426135, guid: 614aad7780eb8214caa938f149317790, type: 3}
    - target: {fileID: 2525434067054087962, guid: 3abf19c8007f30c4f9ac92f3a3c575d3, type: 3}
      propertyPath: sprites.Array.data[1].blue
      value: 
      objectReference: {fileID: -2884338133933777101, guid: 614aad7780eb8214caa938f149317790, type: 3}
    - target: {fileID: 2525434067054087962, guid: 3abf19c8007f30c4f9ac92f3a3c575d3, type: 3}
      propertyPath: sprites.Array.data[2].blue
      value: 
      objectReference: {fileID: -5029445907559531456, guid: 614aad7780eb8214caa938f149317790, type: 3}
    - target: {fileID: 2525434067054087962, guid: 3abf19c8007f30c4f9ac92f3a3c575d3, type: 3}
      propertyPath: sprites.Array.data[3].blue
      value: 
      objectReference: {fileID: 3828219864707333680, guid: 614aad7780eb8214caa938f149317790, type: 3}
    - target: {fileID: 2525434067054087962, guid: 3abf19c8007f30c4f9ac92f3a3c575d3, type: 3}
      propertyPath: sprites.Array.data[4].blue
      value: 
      objectReference: {fileID: 7853679300773990717, guid: 614aad7780eb8214caa938f149317790, type: 3}
    - target: {fileID: 2525434067054087962, guid: 3abf19c8007f30c4f9ac92f3a3c575d3, type: 3}
      propertyPath: sprites.Array.data[5].blue
      value: 
      objectReference: {fileID: 3439802849489297457, guid: 614aad7780eb8214caa938f149317790, type: 3}
    - target: {fileID: 2525434067054087962, guid: 3abf19c8007f30c4f9ac92f3a3c575d3, type: 3}
      propertyPath: sprites.Array.data[0].neural
      value: 
      objectReference: {fileID: 4961761635788059049, guid: 2ee906502b507cf4cb1c077934906360, type: 3}
    - target: {fileID: 2525434067054087962, guid: 3abf19c8007f30c4f9ac92f3a3c575d3, type: 3}
      propertyPath: sprites.Array.data[1].neural
      value: 
      objectReference: {fileID: -8020176861332696212, guid: 2ee906502b507cf4cb1c077934906360, type: 3}
    - target: {fileID: 2525434067054087962, guid: 3abf19c8007f30c4f9ac92f3a3c575d3, type: 3}
      propertyPath: sprites.Array.data[2].neural
      value: 
      objectReference: {fileID: -3789301750722098109, guid: 2ee906502b507cf4cb1c077934906360, type: 3}
    - target: {fileID: 2525434067054087962, guid: 3abf19c8007f30c4f9ac92f3a3c575d3, type: 3}
      propertyPath: sprites.Array.data[3].neural
      value: 
      objectReference: {fileID: -5650029179959646283, guid: 2ee906502b507cf4cb1c077934906360, type: 3}
    - target: {fileID: 2525434067054087962, guid: 3abf19c8007f30c4f9ac92f3a3c575d3, type: 3}
      propertyPath: sprites.Array.data[4].neural
      value: 
      objectReference: {fileID: 2507515247364976078, guid: 2ee906502b507cf4cb1c077934906360, type: 3}
    - target: {fileID: 2525434067054087962, guid: 3abf19c8007f30c4f9ac92f3a3c575d3, type: 3}
      propertyPath: sprites.Array.data[5].neural
      value: 
      objectReference: {fileID: 7287200154889241947, guid: 2ee906502b507cf4cb1c077934906360, type: 3}
    m_RemovedComponents: []
  m_SourcePrefab: {fileID: 100100000, guid: 3abf19c8007f30c4f9ac92f3a3c575d3, type: 3}
--- !u!4 &5802244238206466671 stripped
Transform:
  m_CorrespondingSourceObject: {fileID: 2453868467073340031, guid: 3abf19c8007f30c4f9ac92f3a3c575d3, type: 3}
  m_PrefabInstance: {fileID: 8252936727277742096}
  m_PrefabAsset: {fileID: 0}
