%YAML 1.1
%TAG !u! tag:unity3d.com,2011:
--- !u!1001 &61282510734714478
PrefabInstance:
  m_ObjectHideFlags: 0
  serializedVersion: 2
  m_Modification:
    m_TransformParent: {fileID: 5802244238206466671}
    m_Modifications:
    - target: {fileID: -8653719598885068355, guid: 2aa358966bfae7671985aadded5b32f4, type: 3}
      propertyPath: m_Name
      value: crab_neutral
      objectReference: {fileID: 0}
    - target: {fileID: -7552582706839291426, guid: 2aa358966bfae7671985aadded5b32f4, type: 3}
      propertyPath: m_RootOrder
      value: 6
      objectReference: {fileID: 0}
    - target: {fileID: -7552582706839291426, guid: 2aa358966bfae7671985aadded5b32f4, type: 3}
      propertyPath: m_LocalScale.x
      value: 1.5
      objectReference: {fileID: 0}
    - target: {fileID: -7552582706839291426, guid: 2aa358966bfae7671985aadded5b32f4, type: 3}
      propertyPath: m_LocalScale.y
      value: 1.5
      objectReference: {fileID: 0}
    - target: {fileID: -7552582706839291426, guid: 2aa358966bfae7671985aadded5b32f4, type: 3}
      propertyPath: m_LocalPosition.x
      value: 1.2
      objectReference: {fileID: 0}
    - target: {fileID: -7552582706839291426, guid: 2aa358966bfae7671985aadded5b32f4, type: 3}
      propertyPath: m_LocalPosition.y
      value: -1.6
      objectReference: {fileID: 0}
    - target: {fileID: -7552582706839291426, guid: 2aa358966bfae7671985aadded5b32f4, type: 3}
      propertyPath: m_LocalPosition.z
      value: 0
      objectReference: {fileID: 0}
    - target: {fileID: -7552582706839291426, guid: 2aa358966bfae7671985aadded5b32f4, type: 3}
      propertyPath: m_LocalRotation.w
      value: 1
      objectReference: {fileID: 0}
    - target: {fileID: -7552582706839291426, guid: 2aa358966bfae7671985aadded5b32f4, type: 3}
      propertyPath: m_LocalRotation.x
      value: 0
      objectReference: {fileID: 0}
    - target: {fileID: -7552582706839291426, guid: 2aa358966bfae7671985aadded5b32f4, type: 3}
      propertyPath: m_LocalRotation.y
      value: 0
      objectReference: {fileID: 0}
    - target: {fileID: -7552582706839291426, guid: 2aa358966bfae7671985aadded5b32f4, type: 3}
      propertyPath: m_LocalRotation.z
      value: 0
      objectReference: {fileID: 0}
    - target: {fileID: -7552582706839291426, guid: 2aa358966bfae7671985aadded5b32f4, type: 3}
      propertyPath: m_LocalEulerAnglesHint.x
      value: 0
      objectReference: {fileID: 0}
    - target: {fileID: -7552582706839291426, guid: 2aa358966bfae7671985aadded5b32f4, type: 3}
      propertyPath: m_LocalEulerAnglesHint.y
      value: 0
      objectReference: {fileID: 0}
    - target: {fileID: -7552582706839291426, guid: 2aa358966bfae7671985aadded5b32f4, type: 3}
      propertyPath: m_LocalEulerAnglesHint.z
      value: 0
      objectReference: {fileID: 0}
    - target: {fileID: -7039272200639077762, guid: 2aa358966bfae7671985aadded5b32f4, type: 3}
      propertyPath: m_SortingLayer
      value: 2
      objectReference: {fileID: 0}
    - target: {fileID: -7039272200639077762, guid: 2aa358966bfae7671985aadded5b32f4, type: 3}
      propertyPath: m_SortingLayerID
      value: -1829531043
      objectReference: {fileID: 0}
    - target: {fileID: -385997307900411261, guid: 2aa358966bfae7671985aadded5b32f4, type: 3}
      propertyPath: m_SortingLayer
      value: 2
      objectReference: {fileID: 0}
    - target: {fileID: -385997307900411261, guid: 2aa358966bfae7671985aadded5b32f4, type: 3}
      propertyPath: m_SortingLayerID
      value: -1829531043
      objectReference: {fileID: 0}
    - target: {fileID: 365212928464214937, guid: 2aa358966bfae7671985aadded5b32f4, type: 3}
      propertyPath: m_SortingLayer
      value: 2
      objectReference: {fileID: 0}
    - target: {fileID: 365212928464214937, guid: 2aa358966bfae7671985aadded5b32f4, type: 3}
      propertyPath: m_SortingLayerID
      value: -1829531043
      objectReference: {fileID: 0}
    - target: {fileID: 4900069010787602467, guid: 2aa358966bfae7671985aadded5b32f4, type: 3}
      propertyPath: m_SortingLayer
      value: 2
      objectReference: {fileID: 0}
    - target: {fileID: 4900069010787602467, guid: 2aa358966bfae7671985aadded5b32f4, type: 3}
      propertyPath: m_SortingLayerID
      value: -1829531043
      objectReference: {fileID: 0}
    - target: {fileID: 5454718984575351817, guid: 2aa358966bfae7671985aadded5b32f4, type: 3}
      propertyPath: m_SortingLayer
      value: 2
      objectReference: {fileID: 0}
    - target: {fileID: 5454718984575351817, guid: 2aa358966bfae7671985aadded5b32f4, type: 3}
      propertyPath: m_SortingLayerID
      value: -1829531043
      objectReference: {fileID: 0}
    - target: {fileID: 6133505040955212064, guid: 2aa358966bfae7671985aadded5b32f4, type: 3}
      propertyPath: m_SortingLayer
      value: 2
      objectReference: {fileID: 0}
    - target: {fileID: 6133505040955212064, guid: 2aa358966bfae7671985aadded5b32f4, type: 3}
      propertyPath: m_SortingLayerID
      value: -1829531043
      objectReference: {fileID: 0}
    m_RemovedComponents: []
  m_SourcePrefab: {fileID: 4843985084834002234, guid: 2aa358966bfae7671985aadded5b32f4, type: 3}
--- !u!1 &521986280349222867 stripped
GameObject:
  m_CorrespondingSourceObject: {fileID: -8653719598885068355, guid: 2aa358966bfae7671985aadded5b32f4, type: 3}
  m_PrefabInstance: {fileID: 61282510734714478}
  m_PrefabAsset: {fileID: 0}
--- !u!95 &2789252203541866920
Animator:
  serializedVersion: 4
  m_ObjectHideFlags: 0
  m_CorrespondingSourceObject: {fileID: 0}
  m_PrefabInstance: {fileID: 0}
  m_PrefabAsset: {fileID: 0}
  m_GameObject: {fileID: 521986280349222867}
  m_Enabled: 1
  m_Avatar: {fileID: 0}
  m_Controller: {fileID: 22100000, guid: c1fd342a9495fb965b9fa97a44808a97, type: 2}
  m_CullingMode: 2
  m_UpdateMode: 0
  m_ApplyRootMotion: 0
  m_LinearVelocityBlending: 0
  m_StabilizeFeet: 0
  m_WarningMessage: 
  m_HasTransformHierarchy: 1
  m_AllowConstantClipSamplingOptimization: 1
  m_KeepAnimatorControllerStateOnDisable: 0
--- !u!1001 &8252936727277742096
PrefabInstance:
  m_ObjectHideFlags: 0
  serializedVersion: 2
  m_Modification:
    m_TransformParent: {fileID: 0}
    m_Modifications:
    - target: {fileID: 2453868467073340030, guid: 3abf19c8007f30c4f9ac92f3a3c575d3, type: 3}
      propertyPath: m_Name
      value: dead_crab
      objectReference: {fileID: 0}
    - target: {fileID: 2453868467073340031, guid: 3abf19c8007f30c4f9ac92f3a3c575d3, type: 3}
      propertyPath: m_RootOrder
      value: 0
      objectReference: {fileID: 0}
    - target: {fileID: 2453868467073340031, guid: 3abf19c8007f30c4f9ac92f3a3c575d3, type: 3}
      propertyPath: m_LocalPosition.x
      value: 0
      objectReference: {fileID: 0}
    - target: {fileID: 2453868467073340031, guid: 3abf19c8007f30c4f9ac92f3a3c575d3, type: 3}
      propertyPath: m_LocalPosition.y
      value: 0
      objectReference: {fileID: 0}
    - target: {fileID: 2453868467073340031, guid: 3abf19c8007f30c4f9ac92f3a3c575d3, type: 3}
      propertyPath: m_LocalPosition.z
      value: 0
      objectReference: {fileID: 0}
    - target: {fileID: 2453868467073340031, guid: 3abf19c8007f30c4f9ac92f3a3c575d3, type: 3}
      propertyPath: m_LocalRotation.w
      value: 1
      objectReference: {fileID: 0}
    - target: {fileID: 2453868467073340031, guid: 3abf19c8007f30c4f9ac92f3a3c575d3, type: 3}
      propertyPath: m_LocalRotation.x
      value: 0
      objectReference: {fileID: 0}
    - target: {fileID: 2453868467073340031, guid: 3abf19c8007f30c4f9ac92f3a3c575d3, type: 3}
      propertyPath: m_LocalRotation.y
      value: 0
      objectReference: {fileID: 0}
    - target: {fileID: 2453868467073340031, guid: 3abf19c8007f30c4f9ac92f3a3c575d3, type: 3}
      propertyPath: m_LocalRotation.z
      value: 0
      objectReference: {fileID: 0}
    - target: {fileID: 2453868467073340031, guid: 3abf19c8007f30c4f9ac92f3a3c575d3, type: 3}
      propertyPath: m_LocalEulerAnglesHint.x
      value: 0
      objectReference: {fileID: 0}
    - target: {fileID: 2453868467073340031, guid: 3abf19c8007f30c4f9ac92f3a3c575d3, type: 3}
      propertyPath: m_LocalEulerAnglesHint.y
      value: 0
      objectReference: {fileID: 0}
    - target: {fileID: 2453868467073340031, guid: 3abf19c8007f30c4f9ac92f3a3c575d3, type: 3}
      propertyPath: m_LocalEulerAnglesHint.z
      value: 0
      objectReference: {fileID: 0}
    - target: {fileID: 2525434067054087962, guid: 3abf19c8007f30c4f9ac92f3a3c575d3, type: 3}
      propertyPath: sprites.Array.size
      value: 6
      objectReference: {fileID: 0}
    - target: {fileID: 2525434067054087962, guid: 3abf19c8007f30c4f9ac92f3a3c575d3, type: 3}
      propertyPath: sprites.Array.data[0].red
      value: 
      objectReference: {fileID: 4860110299141235208, guid: 6cebdb4ab2d121449bb211efbe8f42bc, type: 3}
    - target: {fileID: 2525434067054087962, guid: 3abf19c8007f30c4f9ac92f3a3c575d3, type: 3}
      propertyPath: sprites.Array.data[1].red
      value: 
      objectReference: {fileID: 8022882557085268419, guid: 6cebdb4ab2d121449bb211efbe8f42bc, type: 3}
    - target: {fileID: 2525434067054087962, guid: 3abf19c8007f30c4f9ac92f3a3c575d3, type: 3}
      propertyPath: sprites.Array.data[2].red
      value: 
      objectReference: {fileID: -7943952644594973597, guid: 6cebdb4ab2d121449bb211efbe8f42bc, type: 3}
    - target: {fileID: 2525434067054087962, guid: 3abf19c8007f30c4f9ac92f3a3c575d3, type: 3}
      propertyPath: sprites.Array.data[3].red
      value: 
      objectReference: {fileID: -9154688655513647470, guid: 6cebdb4ab2d121449bb211efbe8f42bc, type: 3}
    - target: {fileID: 2525434067054087962, guid: 3abf19c8007f30c4f9ac92f3a3c575d3, type: 3}
      propertyPath: sprites.Array.data[4].red
      value: 
      objectReference: {fileID: -2192869854329678528, guid: 6cebdb4ab2d121449bb211efbe8f42bc, type: 3}
    - target: {fileID: 2525434067054087962, guid: 3abf19c8007f30c4f9ac92f3a3c575d3, type: 3}
      propertyPath: sprites.Array.data[5].red
      value: 
      objectReference: {fileID: -1883532627718357396, guid: 6cebdb4ab2d121449bb211efbe8f42bc, type: 3}
    - target: {fileID: 2525434067054087962, guid: 3abf19c8007f30c4f9ac92f3a3c575d3, type: 3}
      propertyPath: sprites.Array.data[0].blue
      value: 
      objectReference: {fileID: -2134854629324642088, guid: a99eb1eb85cb60a2ea6fcccc71553b80, type: 3}
    - target: {fileID: 2525434067054087962, guid: 3abf19c8007f30c4f9ac92f3a3c575d3, type: 3}
      propertyPath: sprites.Array.data[1].blue
      value: 
      objectReference: {fileID: 635680040936918875, guid: a99eb1eb85cb60a2ea6fcccc71553b80, type: 3}
    - target: {fileID: 2525434067054087962, guid: 3abf19c8007f30c4f9ac92f3a3c575d3, type: 3}
      propertyPath: sprites.Array.data[2].blue
      value: 
      objectReference: {fileID: 7965211515594350101, guid: a99eb1eb85cb60a2ea6fcccc71553b80, type: 3}
    - target: {fileID: 2525434067054087962, guid: 3abf19c8007f30c4f9ac92f3a3c575d3, type: 3}
      propertyPath: sprites.Array.data[3].blue
      value: 
      objectReference: {fileID: -6907622273798885452, guid: a99eb1eb85cb60a2ea6fcccc71553b80, type: 3}
    - target: {fileID: 2525434067054087962, guid: 3abf19c8007f30c4f9ac92f3a3c575d3, type: 3}
      propertyPath: sprites.Array.data[4].blue
      value: 
      objectReference: {fileID: 4897113188552693728, guid: a99eb1eb85cb60a2ea6fcccc71553b80, type: 3}
    - target: {fileID: 2525434067054087962, guid: 3abf19c8007f30c4f9ac92f3a3c575d3, type: 3}
      propertyPath: sprites.Array.data[5].blue
      value: 
      objectReference: {fileID: -178291802723744417, guid: a99eb1eb85cb60a2ea6fcccc71553b80, type: 3}
    - target: {fileID: 2525434067054087962, guid: 3abf19c8007f30c4f9ac92f3a3c575d3, type: 3}
      propertyPath: sprites.Array.data[0].neural
      value: 
      objectReference: {fileID: 106849300371353806, guid: 2aa358966bfae7671985aadded5b32f4, type: 3}
    - target: {fileID: 2525434067054087962, guid: 3abf19c8007f30c4f9ac92f3a3c575d3, type: 3}
      propertyPath: sprites.Array.data[1].neural
      value: 
      objectReference: {fileID: 9115568482966186321, guid: 2aa358966bfae7671985aadded5b32f4, type: 3}
    - target: {fileID: 2525434067054087962, guid: 3abf19c8007f30c4f9ac92f3a3c575d3, type: 3}
      propertyPath: sprites.Array.data[2].neural
      value: 
      objectReference: {fileID: 2353098481923889976, guid: 2aa358966bfae7671985aadded5b32f4, type: 3}
    - target: {fileID: 2525434067054087962, guid: 3abf19c8007f30c4f9ac92f3a3c575d3, type: 3}
      propertyPath: sprites.Array.data[3].neural
      value: 
      objectReference: {fileID: 926656052921585733, guid: 2aa358966bfae7671985aadded5b32f4, type: 3}
    - target: {fileID: 2525434067054087962, guid: 3abf19c8007f30c4f9ac92f3a3c575d3, type: 3}
      propertyPath: sprites.Array.data[4].neural
      value: 
      objectReference: {fileID: -4931313233073326587, guid: 2aa358966bfae7671985aadded5b32f4, type: 3}
    - target: {fileID: 2525434067054087962, guid: 3abf19c8007f30c4f9ac92f3a3c575d3, type: 3}
      propertyPath: sprites.Array.data[5].neural
      value: 
      objectReference: {fileID: -6104907802091010232, guid: 2aa358966bfae7671985aadded5b32f4, type: 3}
    m_RemovedComponents: []
  m_SourcePrefab: {fileID: 100100000, guid: 3abf19c8007f30c4f9ac92f3a3c575d3, type: 3}
--- !u!4 &5802244238206466671 stripped
Transform:
  m_CorrespondingSourceObject: {fileID: 2453868467073340031, guid: 3abf19c8007f30c4f9ac92f3a3c575d3, type: 3}
  m_PrefabInstance: {fileID: 8252936727277742096}
  m_PrefabAsset: {fileID: 0}
