%YAML 1.1
%TAG !u! tag:unity3d.com,2011:
--- !u!221 &22100000
AnimatorOverrideController:
  m_ObjectHideFlags: 0
  m_CorrespondingSourceObject: {fileID: 0}
  m_PrefabInstance: {fileID: 0}
  m_PrefabAsset: {fileID: 0}
  m_Name: Dead_Girl
  m_Controller: {fileID: 9100000, guid: 5b463d2cd7c394ef6bee7751464fd064, type: 2}
  m_Clips:
  - m_OriginalClip: {fileID: 7400000, guid: 95183edec2f1d1a4c89c94b134ee82ce, type: 2}
    m_OverrideClip: {fileID: 7400000, guid: dfde820e653434247b1caad94e39a90d, type: 2}
