%YAML 1.1
%TAG !u! tag:unity3d.com,2011:
--- !u!221 &22100000
AnimatorOverrideController:
  m_ObjectHideFlags: 0
  m_CorrespondingSourceObject: {fileID: 0}
  m_PrefabInstance: {fileID: 0}
  m_PrefabAsset: {fileID: 0}
  m_Name: Player_Goat
  m_Controller: {fileID: 9100000, guid: 3726d4165d23af81fbde9c1569bc4dfc, type: 2}
  m_Clips:
  - m_OriginalClip: {fileID: 7400000, guid: 95183edec2f1d1a4c89c94b134ee82ce, type: 2}
    m_OverrideClip: {fileID: 7400000, guid: 45b4f2ffd6281c244b4760d09d641b1c, type: 2}
  - m_OriginalClip: {fileID: 7400000, guid: 94da7930ed79de94bbba9950863374cd, type: 2}
    m_OverrideClip: {fileID: 7400000, guid: 0a3d2dc0d51f0894ca70f1a8b89764d3, type: 2}
  - m_OriginalClip: {fileID: 7400000, guid: 52fe5675dcebf9048a44af7fe725ed48, type: 2}
    m_OverrideClip: {fileID: 7400000, guid: 6657b2125ac55924fb70eeac6b230278, type: 2}
  - m_OriginalClip: {fileID: 7400000, guid: 9800489802548b344bb9773eef59e112, type: 2}
    m_OverrideClip: {fileID: 7400000, guid: 76e1d78796e6880438851bfe0b8ae00b, type: 2}
  - m_OriginalClip: {fileID: 7400000, guid: bcd84ae08be8316459f69f922cbbddb8, type: 2}
    m_OverrideClip: {fileID: 7400000, guid: 24140804a0b9d024f8c8bfc221bb455c, type: 2}
  - m_OriginalClip: {fileID: 7400000, guid: 4cd3356f83797a74d8e1e716f144f1da, type: 2}
    m_OverrideClip: {fileID: 7400000, guid: e25d0fdb84b2bf74b80fdedceebf3e79, type: 2}
