%YAML 1.1
%TAG !u! tag:unity3d.com,2011:
--- !u!1045 &1
EditorBuildSettings:
  m_ObjectHideFlags: 0
  serializedVersion: 2
  m_Scenes:
  - enabled: 1
    path: Assets/Scenes/titleScreen.unity
    guid: dd1a6af4049c1be5cbd196f57e7f0fc9
  - enabled: 1
    path: Assets/Scenes/TeamSelection.unity
    guid: 5de7f0bc7d535a7da9ce7b36915489a0
  - enabled: 1
    path: Assets/Scenes/Level.unity
    guid: 666fa8655fe4a74f889500d7ea1f0cef
  m_configObjects:
    com.unity.input.settings: {fileID: 11400000, guid: fdd949468a99dd964b6ae324abbb93bd, type: 2}
